# While 193.3.53.0/24 is owned by securitytrails
193.3.53.3
193.3.53.4
193.3.53.5
193.3.53.6
193.3.53.7
193.3.53.8
193.3.53.9
193.3.53.10
193.3.53.11
# Same with 195.230.103.0/24
195.230.103.242
195.230.103.243
195.230.103.244
195.230.103.245
195.230.103.246
195.230.103.247
195.230.103.248
195.230.103.249
195.230.103.250
