128.14.209.146
128.14.209.178
185.180.143.147
45.79.204.46
74.207.233.151
45.33.96.51
45.33.96.205
45.33.117.144
192.53.170.163
45.79.19.147
192.53.170.243
88.80.188.96
139.162.207.84
80.85.86.31
139.162.215.70
172.105.161.246
172.105.171.67
172.105.189.111
192.46.221.241
185.180.143.146
185.180.143.161
185.180.143.162
185.180.143.163
185.180.143.164
185.180.143.147
185.180.143.165
185.180.143.166
185.180.143.167
185.180.143.168
185.180.143.148
185.180.143.169
185.180.143.170
185.180.143.171
185.180.143.172
185.180.143.142
185.180.143.149
185.180.143.150
185.180.143.151
185.180.143.152
185.180.143.143
185.180.143.153
185.180.143.154
185.180.143.155
185.180.143.156
185.180.143.145
185.180.143.157
185.180.143.158
185.180.143.159
185.180.143.160
185.180.143.6
185.180.143.12
185.180.143.19
185.180.143.20
185.180.143.21
185.180.143.22
185.180.143.13
185.180.143.23
185.180.143.24
185.180.143.25
185.180.143.26
185.180.143.14
185.180.143.27
185.180.143.28
185.180.143.29
185.180.143.30
185.180.143.15
185.180.143.31
185.180.143.32
185.180.143.33
185.180.143.34
185.180.143.16
185.180.143.35
185.180.143.36
185.180.143.37
185.180.143.38
185.180.143.74
185.180.143.86
185.180.143.87
185.180.143.88
185.180.143.89
185.180.143.73
185.180.143.82
185.180.143.83
185.180.143.84
185.180.143.85
185.180.143.75
185.180.143.90
185.180.143.91
185.180.143.92
185.180.143.93
185.180.143.76
185.180.143.94
185.180.143.95
185.180.143.96
185.180.143.97
185.180.143.77
185.180.143.98
185.180.143.99
185.180.143.100
185.180.143.101
185.180.143.71
23.90.160.122
23.90.160.123
23.90.160.124
23.90.160.125
23.90.160.126
23.90.160.130
23.90.160.131
23.90.160.132
23.90.160.133
23.90.160.134
193.118.53.138
193.118.53.139
193.118.53.140
193.118.53.141
193.118.53.142
193.118.55.146
193.118.55.147
193.118.55.148
193.118.55.149
193.118.55.150
193.118.55.162
193.118.55.163
193.118.55.164
193.118.55.165
193.118.55.166
193.118.55.170
193.118.55.171
193.118.55.172
193.118.55.173
193.118.55.174
23.90.160.146
23.90.160.147
23.90.160.148
23.90.160.149
23.90.160.150
23.90.160.138
23.90.160.139
23.90.160.140
23.90.160.141
23.90.160.142
193.118.53.130
193.118.53.131
193.118.53.132
193.118.53.133
193.118.53.134
193.118.53.194
193.118.53.195
193.118.53.196
193.118.53.197
193.118.53.198
193.118.53.202
193.118.53.203
193.118.53.204
193.118.53.205
193.118.53.206
193.118.53.210
162.221.192.90
162.221.192.91
162.221.192.92
162.221.192.93
162.221.192.94
23.251.102.90
23.251.102.91
23.251.102.92
23.251.102.93
23.251.102.94
128.14.209.154
128.14.209.155
128.14.209.156
128.14.209.157
128.14.209.158
128.14.209.226
128.14.209.227
128.14.209.228
128.14.209.229
128.14.209.230
128.14.209.234
128.14.209.235
128.14.209.236
128.14.209.237
128.14.209.238
128.14.209.242
128.14.209.243
128.14.209.244
128.14.209.245
128.14.209.246
128.14.209.250
128.14.209.251
128.14.209.252
128.14.209.253
128.14.209.254
128.14.209.178
128.14.209.179
128.14.209.180
128.14.209.181
128.14.209.182
128.14.209.146
128.14.209.147
128.14.209.148
128.14.209.149
128.14.209.150
128.14.209.162
128.14.209.163
128.14.209.164
128.14.209.165
128.14.209.166
162.221.192.26
162.221.192.27
162.221.192.28
162.221.192.29
162.221.192.30
23.251.102.74
23.251.102.75
23.251.102.76
23.251.102.77
23.251.102.78
128.14.141.42
128.14.141.43
128.14.141.44
128.14.141.45
128.14.141.46
128.1.248.34
128.1.248.36
128.1.248.37
128.1.248.38
128.14.133.50
128.1.91.90
128.1.91.91
128.1.91.92
128.1.91.93
128.1.91.94
128.14.136.78
128.14.128.178
128.14.128.179
128.14.128.180
128.14.128.181
128.14.128.182
128.14.133.58
128.14.152.42
128.14.152.43
128.14.152.44
128.14.152.45
128.14.152.46
128.14.134.134
128.1.91.202
128.1.91.203
128.1.91.204
128.1.91.205
128.1.91.206
128.14.134.170
128.14.137.178
128.14.137.179
128.14.137.180
128.14.137.181
128.14.137.182
128.14.141.34
128.14.141.35
128.14.141.36
128.14.141.37
128.14.141.38
128.1.248.42
128.1.248.43
128.1.248.44
128.1.248.45
128.1.248.46
128.1.248.26
128.1.248.27
128.1.248.28
128.1.248.29
128.1.248.30
128.1.248.35
